{
  "molecule":
  [
    {"name": "dioxigen", "vaporizationTemperature": 0},
    {"name": "carbon dioxid", "vaporizationTemperature": 0},
    {"name": "methan", "vaporizationTemperature": 0},
    {"name": "ammonia", "vaporizationTemperature": 0},
    {"name": "dihydrogen", "vaporizationTemperature": 0},
    {"name": "water", "vaporizationTemperature": 0},

    {"name": "ADP", "vaporizationTemperature": 0},
    {"name": "ATP", "vaporizationTemperature": 0},

    {"name": "ribose", "vaporizationTemperature": 0},
    {"name": "desoxyribose", "vaporizationTemperature": 0},

    {"name": "glucose", "vaporizationTemperature": 0},

    {"name": "base 1", "vaporizationTemperature": 0},
    {"name": "base 2", "vaporizationTemperature": 0},

    {"name": "ribonucleotide 1", "vaporizationTemperature": 0},
    {"name": "ribonucleotide 2", "vaporizationTemperature": 0},
    {"name": "desoxyribonucleotide 1", "vaporizationTemperature": 0},
    {"name": "desoxyribonucleotide 2", "vaporizationTemperature": 0},

    {"name": "amino acid 1", "vaporizationTemperature": 0},
    {"name": "amino acid 2", "vaporizationTemperature": 0},
    {"name": "amino acid 3", "vaporizationTemperature": 0}
  ]
}
